
let mailArr = [];

for (let arg of argv._) {
    if (arg.includes("@")) {
        debugger;
        mailArr.push(arg);
    } else if (fs.lstatSync(arg).isFile()) {
        let extractedMail =

            mailArr.push(extract(arg));
        if (/^(.*)\.(txt|csv|xlsx)$/i.test(arg)) {
            debugger;
        } else {
            debugger;
            //unrecognized file
        }

    } else if (fs.lstatSync(arg).isDirectory()) {
        debugger;
    } else {
        //error
        debugger;
    }
}